,,,,,,,,,,,,,,,,,,,,,,,,,,,,,,,,,,
,,,User Information,,,,,,,,,,,,Technician Division (if user is a Technician),,,,User Backflow License,,User Backflow Gauges,,,,,,User NICET License,,,User NAFED License,,User Plumbers License,,
#,Contractor Company,User of the System,First Name,Last Name,Position,Malling Address Line 1,Malling Address City,Malling Address State,Malling Address ZIP,"Work Email 
(to be used as login)",Personal Email,Personal Cell,Work Cell,Fax,Backflow,Fire,Alarm,Plumbing,License ID,Renewal Date,Make,Model,S/N,Last calibrated Date,Next calibrated Date,Company Supplied Gauge,License ID,Nicet Certification,Renewal Date,License ID,Renewal Date,License ID,Renewal Date,Microsoft Calendar ID
EXAMPLE,American Backflow & Fire Prevention Inc.,Yes/No,John,Smith,Manager,1540 N. Old Rand Rd.,Wauconda,IL,60084,john.smith@examplecompany.com,john.smith@examplepersonal.com,(555) 555-55-55,(555) 555-55-55,(555) 555-55-55,Yes,,,,13545846521,09/05/2018,Good Gauge,Turbo 724,23232232323,12/10/2014,12/10/2015,Yes/No,,,,,,,,
1,American Backflow & Fire Prevention Inc.,Yes,Joe,Harbut,Retired,,,,,joeh@backflowandfire.com,joeharbut@gmail.com,(847)7741535,,,,,,,,,,,,,,,,,,,,,,
2,American Backflow & Fire Prevention Inc.,Yes,Dan,Kowalewski,Laborer,985 Aster Ct,Crystal Lake,IL,,dank@backflowandfire.com,Kow42@comcast.net,(847)532-5108,,,Yes,Yes,Yes,Yes,xx0000,01/01/2019,,,,,,,000-000,-,01/01/2019,,,000-000000,01/01/2019,AAMkADFmZTc5YTA1LTljMDgtNGY2Yi05OGUxLTNjYmZhNjVmMjBiZgBGAAAAAADOZDcz3ykjT71_UTQik3frBwBX7ChhJX-ORKlKhcGgAd50AAAAAAEGAABX7ChhJX-ORKlKhcGgAd50AAAOfVQ0AAA=
3,American Backflow & Fire Prevention Inc.,Yes,Chris,Walker,Backflow Technician,201 N 2750W Rd,Kankakee,IL,,Chrisw@backflowandfire.com,chriserinwalker@yahoo.com,(217)670-3865,,,Yes,,,Yes,XC2604,04/25/2019,,,,,,,,,,,,058-147604,04/30/2019,AAMkADFmZTc5YTA1LTljMDgtNGY2Yi05OGUxLTNjYmZhNjVmMjBiZgBGAAAAAADOZDcz3ykjT71_UTQik3frBwBX7ChhJX-ORKlKhcGgAd50AAAAAAEGAABX7ChhJX-ORKlKhcGgAd50AAAOfVQzAAA=
